{
    "page": 1,
    "total_results": 7289,
    "total_pages": 365,
    "results": [
        {
            "vote_count": 1389,
            "id": 19404,
            "video": false,
            "vote_average": 9.2,
            "title": "Dilwale Dulhania Le Jayenge",
            "popularity": 16.809409,
            "poster_path": "/uC6TTUhPpQCmgldGyYveKRAu8JN.jpg",
            "original_language": "hi",
            "original_title": "दिलवाले दुल्हनिया ले जायेंगे",
            "genre_ids": [
                          35,
                          18,
                          10749
                          ],
            "backdrop_path": "/nl79FQ8xWZkhL3rDr1v2RFFR6J0.jpg",
            "adult": false,
            "overview": "Raj is a rich, carefree, happy-go-lucky second generation NRI. Simran is the daughter of Chaudhary Baldev Singh, who in spite of being an NRI is very strict about adherence to Indian values. Simran has left for India to be married to her childhood fiancé. Raj leaves for India with a mission at his hands, to claim his lady love under the noses of her whole family. Thus begins a saga.",
            "release_date": "1995-10-20"
        },
        {
            "vote_count": 10129,
            "id": 278,
            "video": false,
            "vote_average": 8.6,
            "title": "The Shawshank Redemption",
            "popularity": 25.797364,
            "poster_path": "/9O7gLzmreU0nGkIB6K3BsJbzvNv.jpg",
            "original_language": "en",
            "original_title": "The Shawshank Redemption",
            "genre_ids": [
                          18,
                          80
                          ],
            "backdrop_path": "/xBKGJQsAIeweesB79KC89FpBrVr.jpg",
            "adult": false,
            "overview": "Framed in the 1940s for the double murder of his wife and her lover, upstanding banker Andy Dufresne begins a new life at the Shawshank prison, where he puts his accounting skills to work for an amoral warden. During his long stretch in prison, Dufresne comes to be admired by the other inmates -- including an older prisoner named Red -- for his integrity and unquenchable sense of hope.",
            "release_date": "1994-09-23"
        },
        {
            "vote_count": 3383,
            "id": 299536,
            "video": false,
            "vote_average": 8.6,
            "title": "Avengers: Infinity War",
            "popularity": 555.264536,
            "poster_path": "/7WsyChQLEftFiDOVTGkv3hFpyyt.jpg",
            "original_language": "en",
            "original_title": "Avengers: Infinity War",
            "genre_ids": [
                          12,
                          878,
                          14,
                          28
                          ],
            "backdrop_path": "/bOGkgRGdhrBYJSLpXaxhXVstddV.jpg",
            "adult": false,
            "overview": "As the Avengers and their allies have continued to protect the world from threats too large for any one hero to handle, a new danger has emerged from the cosmic shadows: Thanos. A despot of intergalactic infamy, his goal is to collect all six Infinity Stones, artifacts of unimaginable power, and use them to inflict his twisted will on all of reality. Everything the Avengers have fought for has led up to this moment - the fate of Earth and existence itself has never been more uncertain.",
            "release_date": "2018-04-25"
        },
        {
            "vote_count": 2282,
            "id": 372058,
            "video": false,
            "vote_average": 8.6,
            "title": "Your Name.",
            "popularity": 23.092253,
            "poster_path": "/xq1Ugd62d23K2knRUx6xxuALTZB.jpg",
            "original_language": "ja",
            "original_title": "君の名は。",
            "genre_ids": [
                          10749,
                          16,
                          18
                          ],
            "backdrop_path": "/6vkhRvsRvWpmaRVyCXaxTkIEb7j.jpg",
            "adult": false,
            "overview": "High schoolers Mitsuha and Taki are complete strangers living separate lives. But one night, they suddenly switch places. Mitsuha wakes up in Taki’s body, and he in hers. This bizarre occurrence continues to happen randomly, and the two must adjust their lives around each other.",
            "release_date": "2016-08-26"
        },
        {
            "vote_count": 7657,
            "id": 238,
            "video": false,
            "vote_average": 8.5,
            "title": "The Godfather",
            "popularity": 46.877804,
            "poster_path": "/rPdtLWNsZmAtoZl9PK7S2wE3qiS.jpg",
            "original_language": "en",
            "original_title": "The Godfather",
            "genre_ids": [
                          18,
                          80
                          ],
            "backdrop_path": "/6xKCYgH16UuwEGAyroLU6p8HLIn.jpg",
            "adult": false,
            "overview": "Spanning the years 1945 to 1955, a chronicle of the fictional Italian-American Corleone crime family. When organized crime family patriarch, Vito Corleone barely survives an attempt on his life, his youngest son, Michael steps in to take care of the would-be killers, launching a campaign of bloody revenge.",
            "release_date": "1972-03-14"
        },
        {
            "vote_count": 5254,
            "id": 129,
            "video": false,
            "vote_average": 8.4,
            "title": "Spirited Away",
            "popularity": 24.232342,
            "poster_path": "/dL11DBPcRhWWnJcFXl9A07MrqTI.jpg",
            "original_language": "ja",
            "original_title": "千と千尋の神隠し",
            "genre_ids": [
                          16,
                          10751,
                          14
                          ],
            "backdrop_path": "/djgM2d3e42p9GFQObg6lwK2SVw2.jpg",
            "adult": false,
            "overview": "A young girl, Chihiro, becomes trapped in a strange new world of spirits. When her parents undergo a mysterious transformation, she must call upon the courage she never knew she had to free her family.",
            "release_date": "2001-07-20"
        },
        {
            "vote_count": 5743,
            "id": 424,
            "video": false,
            "vote_average": 8.4,
            "title": "Schindler's List",
            "popularity": 21.44823,
            "poster_path": "/yPisjyLweCl1tbgwgtzBCNCBle.jpg",
            "original_language": "en",
            "original_title": "Schindler's List",
            "genre_ids": [
                          18,
                          36,
                          10752
                          ],
            "backdrop_path": "/rIpSszng8P0DL0TimSzZbpfnvh1.jpg",
            "adult": false,
            "overview": "The true story of how businessman Oskar Schindler saved over a thousand Jewish lives from the Nazis while they worked as slaves in his factory during World War II.",
            "release_date": "1993-12-15"
        },
        {
            "vote_count": 4417,
            "id": 240,
            "video": false,
            "vote_average": 8.4,
            "title": "The Godfather: Part II",
            "popularity": 28.225057,
            "poster_path": "/bVq65huQ8vHDd1a4Z37QtuyEvpA.jpg",
            "original_language": "en",
            "original_title": "The Godfather: Part II",
            "genre_ids": [
                          18,
                          80
                          ],
            "backdrop_path": "/gLbBRyS7MBrmVUNce91Hmx9vzqI.jpg",
            "adult": false,
            "overview": "In the continuing saga of the Corleone crime family, a young Vito Corleone grows up in Sicily and in 1910s New York. In the 1950s, Michael Corleone attempts to expand the family business into Las Vegas, Hollywood and Cuba.",
            "release_date": "1974-12-20"
        },
        {
            "vote_count": 216,
            "id": 449176,
            "video": false,
            "vote_average": 8.4,
            "title": "Love, Simon",
            "popularity": 31.023847,
            "poster_path": "/5YUYg5q7QfC4IoNwNUtiwdiYKPr.jpg",
            "original_language": "en",
            "original_title": "Love, Simon",
            "genre_ids": [
                          35,
                          18,
                          10749
                          ],
            "backdrop_path": "/rqMEeajyzSF4PpJtdCB816Iz8Vr.jpg",
            "adult": false,
            "overview": "Everyone deserves a great love story. But for seventeen-year old Simon Spier it's a little more complicated: he's yet to tell his family or friends he's gay and he doesn't know the identity of the anonymous classmate he's fallen for online.",
            "release_date": "2018-03-16"
        },
        {
            "vote_count": 11265,
            "id": 680,
            "video": false,
            "vote_average": 8.3,
            "title": "Pulp Fiction",
            "popularity": 30.412058,
            "poster_path": "/dM2w364MScsjFf8pfMbaWUcWrR.jpg",
            "original_language": "en",
            "original_title": "Pulp Fiction",
            "genre_ids": [
                          53,
                          80
                          ],
            "backdrop_path": "/4cDFJr4HnXN5AdPw4AKrmLlMWdO.jpg",
            "adult": false,
            "overview": "A burger-loving hit man, his philosophical partner, a drug-addled gangster's moll and a washed-up boxer converge in this sprawling, comedic crime caper. Their adventures unfurl in three stories that ingeniously trip back and forth in time.",
            "release_date": "1994-09-10"
        },
        {
            "vote_count": 5018,
            "id": 637,
            "video": false,
            "vote_average": 8.3,
            "title": "Life Is Beautiful",
            "popularity": 21.863275,
            "poster_path": "/f7DImXDebOs148U4uPjI61iDvaK.jpg",
            "original_language": "it",
            "original_title": "La vita è bella",
            "genre_ids": [
                          35,
                          18
                          ],
            "backdrop_path": "/bORe0eI72D874TMawOOFvqWS6Xe.jpg",
            "adult": false,
            "overview": "A touching story of an Italian book seller of Jewish ancestry who lives in his own little fairy tale. His creative and happy life would come to an abrupt halt when his entire family is deported to a concentration camp during World War II. While locked up he tries to convince his son that the whole thing is just a game.",
            "release_date": "1997-12-20"
        },
        {
            "vote_count": 5827,
            "id": 244786,
            "video": false,
            "vote_average": 8.3,
            "title": "Whiplash",
            "popularity": 29.333884,
            "poster_path": "/lIv1QinFqz4dlp5U4lQ6HaiskOZ.jpg",
            "original_language": "en",
            "original_title": "Whiplash",
            "genre_ids": [
                          18
                          ],
            "backdrop_path": "/6bbZ6XyvgfjhQwbplnUh1LSj1ky.jpg",
            "adult": false,
            "overview": "Under the direction of a ruthless instructor, a talented young drummer begins to pursue perfection at any cost, even his humanity.",
            "release_date": "2014-10-10"
        },
        {
            "vote_count": 5630,
            "id": 497,
            "video": false,
            "vote_average": 8.3,
            "title": "The Green Mile",
            "popularity": 30.308372,
            "poster_path": "/3yJUlOtVa09CYJocwBU8eAryja0.jpg",
            "original_language": "en",
            "original_title": "The Green Mile",
            "genre_ids": [
                          14,
                          18,
                          80
                          ],
            "backdrop_path": "/Rlt20sEbOQKPVjia7lUilFm49W.jpg",
            "adult": false,
            "overview": "A supernatural tale set on death row in a Southern prison, where gentle giant John Coffey possesses the mysterious power to heal people's ailments. When the cellblock's head guard, Paul Edgecomb, recognizes Coffey's miraculous gift, he tries desperately to help stave off the condemned man's execution.",
            "release_date": "1999-12-10"
        },
        {
            "vote_count": 1565,
            "id": 311,
            "video": false,
            "vote_average": 8.3,
            "title": "Once Upon a Time in America",
            "popularity": 18.203346,
            "poster_path": "/fqP3Q7DWMFqW7mh11hWXbNwN9rz.jpg",
            "original_language": "en",
            "original_title": "Once Upon a Time in America",
            "genre_ids": [
                          18,
                          80
                          ],
            "backdrop_path": "/vnT6HzjLSDrAweHn9xWykb8Ii6T.jpg",
            "adult": false,
            "overview": "A former Prohibition-era Jewish gangster returns to the Lower East Side of Manhattan over thirty years later, where he once again must confront the ghosts and regrets of his old life.",
            "release_date": "1984-05-23"
        },
        {
            "vote_count": 12389,
            "id": 550,
            "video": false,
            "vote_average": 8.3,
            "title": "Fight Club",
            "popularity": 33.915739,
            "poster_path": "/adw6Lq9FiC9zjYEpOqfq03ituwp.jpg",
            "original_language": "en",
            "original_title": "Fight Club",
            "genre_ids": [
                          18
                          ],
            "backdrop_path": "/87hTDiay2N2qWyX4Ds7ybXi9h8I.jpg",
            "adult": false,
            "overview": "A ticking-time-bomb insomniac and a slippery soap salesman channel primal male aggression into a shocking new form of therapy. Their concept catches on, with underground \"fight clubs\" forming in every town, until an eccentric gets in the way and ignites an out-of-control spiral toward oblivion.",
            "release_date": "1999-10-15"
        },
        {
            "vote_count": 138,
            "id": 452522,
            "video": false,
            "vote_average": 8.3,
            "title": "Twin Peaks",
            "popularity": 5.670941,
            "poster_path": "/zQsEi6096L7PvowV39dtdqdW16f.jpg",
            "original_language": "en",
            "original_title": "Twin Peaks",
            "genre_ids": [
                          18,
                          9648
                          ],
            "backdrop_path": "/xqjGKLwLZeujg4fiBTOqhZkoL31.jpg",
            "adult": false,
            "overview": "Standalone version of the series pilot with an alternate, closed ending, produced for the European VHS market.",
            "release_date": "1989-12-31"
        },
        {
            "vote_count": 576,
            "id": 339877,
            "video": false,
            "vote_average": 8.3,
            "title": "Loving Vincent",
            "popularity": 14.617755,
            "poster_path": "/qlrhwUDe7YOZujAYanK6ij2vbY5.jpg",
            "original_language": "en",
            "original_title": "Loving Vincent",
            "genre_ids": [
                          16,
                          18,
                          9648
                          ],
            "backdrop_path": "/vRejuzhA14eu6JwY1p8xX5Dln0y.jpg",
            "adult": false,
            "overview": "The film brings the paintings of Vincent van Gogh to life to tell his remarkable story. Every one of the 65,000 frames of the film is an oil-painting hand-painted by 125 professional oil-painters who travelled from all across the world to the Loving Vincent studios in Poland and Greece to be a part of the production. As remarkable as Vincent’s brilliant paintings are his passionate and ill-fated life and mysterious death.",
            "release_date": "2017-08-02"
        },
        {
            "vote_count": 14879,
            "id": 155,
            "video": false,
            "vote_average": 8.3,
            "title": "The Dark Knight",
            "popularity": 31.495853,
            "poster_path": "/1hRoyzDtpgMU7Dz4JF22RANzQO7.jpg",
            "original_language": "en",
            "original_title": "The Dark Knight",
            "genre_ids": [
                          18,
                          28,
                          80,
                          53
                          ],
            "backdrop_path": "/hqkIcbrOHL86UncnHIsHVcVmzue.jpg",
            "adult": false,
            "overview": "Batman raises the stakes in his war on crime. With the help of Lt. Jim Gordon and District Attorney Harvey Dent, Batman sets out to dismantle the remaining criminal organizations that plague the streets. The partnership proves to be effective, but they soon find themselves prey to a reign of chaos unleashed by a rising criminal mastermind known to the terrified citizens of Gotham as the Joker.",
            "release_date": "2008-07-16"
        },
        {
            "vote_count": 440,
            "id": 432517,
            "video": false,
            "vote_average": 8.3,
            "title": "Sherlock: The Final Problem",
            "popularity": 9.4713,
            "poster_path": "/ySiqbi1sW7imVYbtECZS0xQ3Hmj.jpg",
            "original_language": "en",
            "original_title": "Sherlock: The Final Problem",
            "genre_ids": [
                          18,
                          9648
                          ],
            "backdrop_path": "/3nXbWFPFGvjSE5bw8G6bBLVIzow.jpg",
            "adult": false,
            "overview": "Long buried secrets finally come to light as someone has been playing a very long game indeed. Sherlock and John face their greatest ever challenge. Is the game finally over?",
            "release_date": "2017-01-15"
        },
        {
            "vote_count": 10661,
            "id": 13,
            "video": false,
            "vote_average": 8.3,
            "title": "Forrest Gump",
            "popularity": 29.570395,
            "poster_path": "/yE5d3BUhE8hCnkMUJOo1QDoOGNz.jpg",
            "original_language": "en",
            "original_title": "Forrest Gump",
            "genre_ids": [
                          35,
                          18,
                          10749
                          ],
            "backdrop_path": "/d5ud5KadGTrY6UQzzNIuK6L0Xyo.jpg",
            "adult": false,
            "overview": "A man with a low IQ has accomplished great things in his life and been present during significant historic events - in each case, far exceeding what anyone imagined he could do. Yet, despite all the things he has attained, his one true love eludes him. 'Forrest Gump' is the story of a man who rose above his challenges, and who proved that determination, courage, and love are more important than ability.",
            "release_date": "1994-07-06"
        }
    ]
}
